…
1. indicate what grouping you want to use using the `group_by` function
2. create the summary variables using the `summarize` function.

In our case, to make things easier to read, we divided the data per 1,000,000 and rounded the figures.


```r
data %>% 
  group_by(country) %>%
  summarize(m_pop = round(mean(pop/1000000),1))
```

```
## # A tibble: 142 x 2
##    country     m_pop
##    <fct>       <dbl>
##  1 Afghanistan  15.8
##  2 Albania       2.6
##  3 Algeria      19.9
##  4 Angola        7.3
##  5 Argentina    28.6
##  6 Australia    14.6
##  7 Austria       7.6
##  8 Bahrain       0.4
##  9 Bangladesh   90.8
## 10 Belgium       9.7
## # ... with 132 more rows
```

Note that you created a new data set with only 142 rows (one per available country). 

The data available per country may vary between countries, so you may want to add another variable indicating the number of records are summarized for each country. For this, you can add another variable and use the function `n()`.


```r
data %>% 
  group_by(country) %>%
  summarize(m_pop = round(mean(pop/1000000),1), N = n())
```

```
## # A tibble: 142 x 3
##    country     m_pop     N
##    <fct>       <dbl> <int>
##  1 Afghanistan  15.8    12
##  2 Albania       2.6    12
##  3 Algeria      19.9    12
##  4 Angola        7.3    12
##  5 Argentina    28.6    12
##  6 Australia    14.6    12
##  7 Austria       7.6    12
##  8 Bahrain       0.4    12
##  9 Bangladesh   90.8    12
## 10 Belgium       9.7    12
## # ... with 132 more rows
```
…
```r
data %>% 
  filter(year %in% c(1952, 2007)) %>%
  group_by(country) %>%
  mutate(diffPop = pop - lag(pop), growthPop = diffPop/lag(pop)) %>%
  select(country, year, pop, diffPop, growthPop) %>% 
  filter(!is.na(growthPop)) %>%
  arrange(desc(growthPop))
```

```
## # A tibble: 142 x 5
## # Groups:   country [142]
##    country        year      pop  diffPop growthPop
##    <fct>         <int>    <int>    <int>     <dbl>
##  1 Kuwait         2007  2505559  2345559     14.7 
##  2 Jordan         2007  6053193  5445279      8.96
##  3 Djibouti       2007   496374   433225      6.86
##  4 Saudi Arabia   2007 27601038 23595361      5.89
##  5 Oman           2007  3204897  2697064      5.31
##  6 Cote d'Ivoire  2007 18013409 15036390      5.05
##  7 Gambia         2007  1688359  1404039      4.94
##  8 Libya          2007  6036914  5017185      4.92
##  9 Bahrain        2007   708573   588126      4.88
## 10 Kenya          2007 35610177 29146131      4.51
## # ... with 132 more rows
```
…
