…
With large data frames, it will show only the first 10 rows, and all the columns that fit on screen and in addition to its name, each column reports its type.


```r
ans <- tibble(
  x = 1:50, 
  t = letters[1:50],
  x2 = x^2,
  e = sample(letters, 50, replace = TRUE)
)
ans
```

```
## # A tibble: 50 × 4
##        x t        x2 e    
##    <int> <chr> <dbl> <chr>
##  1     1 a         1 y    
##  2     2 b         4 o    
##  3     3 c         9 h    
##  4     4 d        16 r    
##  5     5 e        25 j    
##  6     6 f        36 y    
##  7     7 g        49 e    
##  8     8 h        64 g    
##  9     9 i        81 d    
## 10    10 j       100 s    
## # … with 40 more rows
```
…
