…
When you have a large survey with many variables, it will often be useful to extract the specific variables useful for a particular type of analysis. 

The function `select()` will allow you do create a subset of variables based on their names.

### column positions
A first approach is to list the column positions.  


```r
data %>% select(1, 3, 6) 
```

```
## # A tibble: 1,704 x 3
##    country      year gdpPercap
##    <fct>       <int>     <dbl>
##  1 Afghanistan  1952      779.
##  2 Afghanistan  1957      821.
##  3 Afghanistan  1962      853.
##  4 Afghanistan  1967      836.
##  5 Afghanistan  1972      740.
##  6 Afghanistan  1977      786.
##  7 Afghanistan  1982      978.
##  8 Afghanistan  1987      852.
##  9 Afghanistan  1992      649.
## 10 Afghanistan  1997      635.
## # ... with 1,694 more rows
```
…
#### Use additional helpers on variable names
To make your life easier, you can also use a number of helper function within select


```r
# Select of the variables with names starting with C
data %>% select(starts_with("c"))
```

```
## # A tibble: 1,704 x 2
##    country     continent
##    <fct>       <fct>    
##  1 Afghanistan Asia     
##  2 Afghanistan Asia     
##  3 Afghanistan Asia     
##  4 Afghanistan Asia     
##  5 Afghanistan Asia     
##  6 Afghanistan Asia     
##  7 Afghanistan Asia     
##  8 Afghanistan Asia     
##  9 Afghanistan Asia     
## 10 Afghanistan Asia     
## # ... with 1,694 more rows
```


```r
# Select of the variables with names containing O
data %>% select(contains("O"))
```

```
## # A tibble: 1,704 x 4
##    country     continent      pop row_no
##    <fct>       <fct>        <int>  <int>
##  1 Afghanistan Asia       8425333      1
##  2 Afghanistan Asia       9240934      2
##  3 Afghanistan Asia      10267083      3
##  4 Afghanistan Asia      11537966      4
##  5 Afghanistan Asia      13079460      5
##  6 Afghanistan Asia      14880372      6
##  7 Afghanistan Asia      12881816      7
##  8 Afghanistan Asia      13867957      8
##  9 Afghanistan Asia      16317921      9
## 10 Afghanistan Asia      22227415     10
## # ... with 1,694 more rows
```
…
## Selecting rows and columns {#subsetting-rows-and-columns}

You have all the tools to select rows and columns.
Using tidyverse, you will chain each activities. For example, you want to select the column country and pop, and consider only the African countries:


```r
data %>% filter(continent == "Africa") %>%
  select(country, pop)
```

```
## # A tibble: 624 x 2
##    country      pop
##    <fct>      <int>
##  1 Algeria  9279525
##  2 Algeria 10270856
##  3 Algeria 11000948
##  4 Algeria 12760499
##  5 Algeria 14760787
##  6 Algeria 17152804
##  7 Algeria 20033753
##  8 Algeria 23254956
##  9 Algeria 26298373
## 10 Algeria 29072015
## # ... with 614 more rows
```
…
